Project title
…
ℹ Use `spec()` to retrieve the full column specification for this data.
ℹ Specify the column types or set `show_col_types = FALSE` to quiet this message.

Sources of data

nyc_schools_17_to_22: source: https://data.cityofnewyork.us/Education/2017-18-2021-22-Demographic-Snapshot/c7ru-d68s data provided by New York City Department of Education

nyc_schools_13_to_18: source: https://data.cityofnewyork.us/Education/2013-2018-Demographic-Snapshot-School/s52a-8aq6 data provided by New York City Department of Education

Initial views of the data

nyc_schools_17_to_22

# A tibble: 9,251 × 44
   DBN    `School Name`             Year    `Total Enrollment` `Grade 3K`
   <chr>  <chr>                     <chr>                <dbl>      <dbl>
 1 01M015 P.S. 015 Roberto Clemente 2017-18                190          0
 2 01M015 P.S. 015 Roberto Clemente 2018-19                174          0
 3 01M015 P.S. 015 Roberto Clemente 2019-20                190          0
 4 01M015 P.S. 015 Roberto Clemente 2020-21                193          0
 5 01M015 P.S. 015 Roberto Clemente 2021-22                179          0
 6 01M019 P.S. 019 Asher Levy       2017-18                257          0
 7 01M019 P.S. 019 Asher Levy       2018-19                249          0
 8 01M019 P.S. 019 Asher Levy       2019-20                236          0
 9 01M019 P.S. 019 Asher Levy       2020-21                212          0
10 01M019 P.S. 019 Asher Levy       2021-22                176          9
# ℹ 9,241 more rows
# ℹ 39 more variables: `Grade PK (Half Day & Full Day)` <dbl>, `Grade K` <dbl>,
#   `Grade 1` <dbl>, `Grade 2` <dbl>, `Grade 3` <dbl>, `Grade 4` <dbl>,
#   `Grade 5` <dbl>, `Grade 6` <dbl>, `Grade 7` <dbl>, `Grade 8` <dbl>,
#   `Grade 9` <dbl>, `Grade 10` <dbl>, `Grade 11` <dbl>, `Grade 12` <dbl>,
#   `# Female` <dbl>, `% Female` <dbl>, `# Male` <dbl>, `% Male` <dbl>,
#   `# Asian` <dbl>, `% Asian` <dbl>, `# Black` <dbl>, `% Black` <dbl>, …
…
#View(nyc_schools_17_to_22)

nyc_schools_13_to_18

# A tibble: 8,972 × 39
   DBN   `School Name` Year  `Total Enrollment` Grade PK (Half Day &…¹ `Grade K`
   <chr> <chr>         <chr>              <dbl>                  <dbl>     <dbl>
 1 01M0… P.S. 015 Rob… 2013…                190                     26        39
 2 01M0… P.S. 015 Rob… 2014…                183                     18        27
 3 01M0… P.S. 015 Rob… 2015…                176                     14        32
 4 01M0… P.S. 015 Rob… 2016…                178                     17        28
 5 01M0… P.S. 015 Rob… 2017…                190                     17        28
 6 01M0… P.S. 019 Ash… 2013…                285                     36        39
 7 01M0… P.S. 019 Ash… 2014…                270                     30        44
 8 01M0… P.S. 019 Ash… 2015…                270                     21        47
 9 01M0… P.S. 019 Ash… 2016…                271                     24        37
10 01M0… P.S. 019 Ash… 2017…                257                     13        34
# ℹ 8,962 more rows
# ℹ abbreviated name: ¹​`Grade PK (Half Day & Full Day)`
# ℹ 33 more variables: `Grade 1` <dbl>, `Grade 2` <dbl>, `Grade 3` <dbl>,
#   `Grade 4` <dbl>, `Grade 5` <dbl>, `Grade 6` <dbl>, `Grade 7` <dbl>,
#   `Grade 8` <dbl>, `Grade 9` <dbl>, `Grade 10` <dbl>, `Grade 11` <dbl>,
#   `Grade 12` <dbl>, `# Female` <dbl>, `% Female` <dbl>, `# Male` <dbl>,
#   `% Male` <dbl>, `# Asian` <dbl>, `% Asian` <dbl>, `# Black` <dbl>, …
…
# View(nyc_schools_13_to_18)

Data Cleaning

# deleting all rows with the years "2017-18" in nyc_schools_13_to_18
# information is already contained in nyc_schools_17_to_22

nyc_schools_13_to_18_fix <- nyc_schools_13_to_18 |> 
  filter(Year != "2017-18") 
  
nyc_schools_13_to_18_fix

# A tibble: 7,128 × 39
   DBN   `School Name` Year  `Total Enrollment` Grade PK (Half Day &…¹ `Grade K`
   <chr> <chr>         <chr>              <dbl>                  <dbl>     <dbl>
 1 01M0… P.S. 015 Rob… 2013…                190                     26        39
 2 01M0… P.S. 015 Rob… 2014…                183                     18        27
 3 01M0… P.S. 015 Rob… 2015…                176                     14        32
 4 01M0… P.S. 015 Rob… 2016…                178                     17        28
 5 01M0… P.S. 019 Ash… 2013…                285                     36        39
 6 01M0… P.S. 019 Ash… 2014…                270                     30        44
 7 01M0… P.S. 019 Ash… 2015…                270                     21        47
 8 01M0… P.S. 019 Ash… 2016…                271                     24        37
 9 01M0… P.S. 020 Ann… 2013…                631                     54       114
10 01M0… P.S. 020 Ann… 2014…                633                     51       102
# ℹ 7,118 more rows
# ℹ abbreviated name: ¹​`Grade PK (Half Day & Full Day)`
# ℹ 33 more variables: `Grade 1` <dbl>, `Grade 2` <dbl>, `Grade 3` <dbl>,
#   `Grade 4` <dbl>, `Grade 5` <dbl>, `Grade 6` <dbl>, `Grade 7` <dbl>,
#   `Grade 8` <dbl>, `Grade 9` <dbl>, `Grade 10` <dbl>, `Grade 11` <dbl>,
#   `Grade 12` <dbl>, `# Female` <dbl>, `% Female` <dbl>, `# Male` <dbl>,
#   `% Male` <dbl>, `# Asian` <dbl>, `% Asian` <dbl>, `# Black` <dbl>, …
…
# turning all column names to snakecase
colnames(schools) <- tolower(gsub(" ", "_", colnames(schools)))

# deleting  all '#' in column names to avoid confusing R
colnames(schools) <- gsub("#_", "", colnames(schools))

# turning all "%" in column names to "percent" to avoid confusing R
colnames(schools) <- gsub("%", "percent", colnames(schools))

schools 

# A tibble: 16,379 × 46
   dbn    school_name      year  total_enrollment grade_pk_(half_day_&…¹ grade_k
   <chr>  <chr>            <chr>            <dbl>                  <dbl>   <dbl>
 1 01M015 P.S. 015 Robert… 2013               190                     26      39
 2 01M015 P.S. 015 Robert… 2014               183                     18      27
 3 01M015 P.S. 015 Robert… 2015               176                     14      32
 4 01M015 P.S. 015 Robert… 2016               178                     17      28
 5 01M015 P.S. 015 Robert… 2017               190                     17      28
 6 01M015 P.S. 015 Robert… 2018               174                     13      20
 7 01M015 P.S. 015 Robert… 2019               190                     14      29
 8 01M015 P.S. 015 Robert… 2020               193                     17      29
 9 01M015 P.S. 015 Robert… 2021               179                     15      30
10 01M019 P.S. 019 Asher … 2013               285                     36      39
# ℹ 16,369 more rows
# ℹ abbreviated name: ¹​`grade_pk_(half_day_&_full_day)`
# ℹ 40 more variables: grade_1 <dbl>, grade_2 <dbl>, grade_3 <dbl>,
#   grade_4 <dbl>, grade_5 <dbl>, grade_6 <dbl>, grade_7 <dbl>, grade_8 <dbl>,
#   grade_9 <dbl>, grade_10 <dbl>, grade_11 <dbl>, grade_12 <dbl>,
#   female <dbl>, percent_female <dbl>, male <dbl>, percent_male <dbl>,
#   asian <dbl>, percent_asian <dbl>, black <dbl>, percent_black <dbl>, …
…
schools

# A tibble: 16,379 × 45
   dbn    school_name      year  total_enrollment grade_pk_(half_day_&…¹ grade_k
   <chr>  <chr>            <chr>            <dbl>                  <dbl>   <dbl>
 1 01M015 P.S. 015 Robert… 2013               190                     26      39
 2 01M015 P.S. 015 Robert… 2014               183                     18      27
 3 01M015 P.S. 015 Robert… 2015               176                     14      32
 4 01M015 P.S. 015 Robert… 2016               178                     17      28
 5 01M015 P.S. 015 Robert… 2017               190                     17      28
 6 01M015 P.S. 015 Robert… 2018               174                     13      20
 7 01M015 P.S. 015 Robert… 2019               190                     14      29
 8 01M015 P.S. 015 Robert… 2020               193                     17      29
 9 01M015 P.S. 015 Robert… 2021               179                     15      30
10 01M019 P.S. 019 Asher … 2013               285                     36      39
# ℹ 16,369 more rows
# ℹ abbreviated name: ¹​`grade_pk_(half_day_&_full_day)`
# ℹ 39 more variables: grade_1 <dbl>, grade_2 <dbl>, grade_3 <dbl>,
#   grade_4 <dbl>, grade_5 <dbl>, grade_6 <dbl>, grade_7 <dbl>, grade_8 <dbl>,
#   grade_9 <dbl>, grade_10 <dbl>, grade_11 <dbl>, grade_12 <dbl>,
#   female <dbl>, percent_female <dbl>, male <dbl>, percent_male <dbl>,
#   asian <dbl>, percent_asian <dbl>, black <dbl>, percent_black <dbl>, …
…
Warning: There was 1 warning in `mutate()`.
ℹ In argument: `economic_need_index = as.numeric(gsub("%", "",
  economic_need_index))`.
Caused by warning:
! NAs introduced by coercion

Warning: There was 1 warning in `mutate()`.
ℹ In argument: `poverty = as.numeric(poverty)`.
Caused by warning:
! NAs introduced by coercion

schools

# A tibble: 16,379 × 45
   dbn    school_name       year total_enrollment grade_pk_(half_day_&…¹ grade_k
   <chr>  <chr>            <dbl>            <dbl>                  <dbl>   <dbl>
 1 01M015 P.S. 015 Robert…  2013              190                     26      39
 2 01M015 P.S. 015 Robert…  2014              183                     18      27
 3 01M015 P.S. 015 Robert…  2015              176                     14      32
 4 01M015 P.S. 015 Robert…  2016              178                     17      28
 5 01M015 P.S. 015 Robert…  2017              190                     17      28
 6 01M015 P.S. 015 Robert…  2018              174                     13      20
 7 01M015 P.S. 015 Robert…  2019              190                     14      29
 8 01M015 P.S. 015 Robert…  2020              193                     17      29
 9 01M015 P.S. 015 Robert…  2021              179                     15      30
10 01M019 P.S. 019 Asher …  2013              285                     36      39
# ℹ 16,369 more rows
# ℹ abbreviated name: ¹​`grade_pk_(half_day_&_full_day)`
# ℹ 39 more variables: grade_1 <dbl>, grade_2 <dbl>, grade_3 <dbl>,
#   grade_4 <dbl>, grade_5 <dbl>, grade_6 <dbl>, grade_7 <dbl>, grade_8 <dbl>,
#   grade_9 <dbl>, grade_10 <dbl>, grade_11 <dbl>, grade_12 <dbl>,
#   female <dbl>, percent_female <dbl>, male <dbl>, percent_male <dbl>,
#   asian <dbl>, percent_asian <dbl>, black <dbl>, percent_black <dbl>, …
…
