School Enrollment Project
…
Warning: There was 1 warning in `mutate()`.
ℹ In argument: `economic_need_index = as.numeric(gsub("%", "",
  economic_need_index))`.
Caused by warning:
! NAs introduced by coercion

Warning: There was 1 warning in `mutate()`.
ℹ In argument: `poverty = as.numeric(poverty)`.
Caused by warning:
! NAs introduced by coercion

schools

# A tibble: 16,379 × 45
   dbn    school_name       year total_enrollment grade_pk_(half_day_&…¹ grade_k
   <chr>  <chr>            <dbl>            <dbl>                  <dbl>   <dbl>
 1 01M015 P.S. 015 Robert…  2013              190                     26      39
 2 01M015 P.S. 015 Robert…  2014              183                     18      27
 3 01M015 P.S. 015 Robert…  2015              176                     14      32
 4 01M015 P.S. 015 Robert…  2016              178                     17      28
 5 01M015 P.S. 015 Robert…  2017              190                     17      28
 6 01M015 P.S. 015 Robert…  2018              174                     13      20
 7 01M015 P.S. 015 Robert…  2019              190                     14      29
 8 01M015 P.S. 015 Robert…  2020              193                     17      29
 9 01M015 P.S. 015 Robert…  2021              179                     15      30
10 01M019 P.S. 019 Asher …  2013              285                     36      39
# ℹ 16,369 more rows
# ℹ abbreviated name: ¹​`grade_pk_(half_day_&_full_day)`
# ℹ 39 more variables: grade_1 <dbl>, grade_2 <dbl>, grade_3 <dbl>,
#   grade_4 <dbl>, grade_5 <dbl>, grade_6 <dbl>, grade_7 <dbl>, grade_8 <dbl>,
#   grade_9 <dbl>, grade_10 <dbl>, grade_11 <dbl>, grade_12 <dbl>,
#   female <dbl>, percent_female <dbl>, male <dbl>, percent_male <dbl>,
#   asian <dbl>, percent_asian <dbl>, black <dbl>, percent_black <dbl>, …
…
`summarise()` has grouped output by 'year'. You can override using the
`.groups` argument.

grade_order <- c("pk", "k", as.character(1:12))

df_long <- df_long |>
  mutate(grade = factor(grade, levels = grade_order)) |> 
  arrange(year, grade) 

df_long

# A tibble: 126 × 3
# Groups:   year [9]
    year grade total_enrollment
   <dbl> <fct>            <dbl>
 1  2013 pk               23166
 2  2013 k                84945
 3  2013 1                89176
 4  2013 2                83918
 5  2013 3                80308
 6  2013 4                76630
 7  2013 5                75336
 8  2013 6                74009
 9  2013 7                72435
10  2013 8                73288
# ℹ 116 more rows
…
